<?xml version="1.0" encoding="utf-8"?>
<!-- Generator: Adobe Illustrator 23.0.5, SVG Export Plug-In . SVG Version: 6.00 Build 0)  -->
<svg version="1.1" id="Layer_1" xmlns="http://www.w3.org/2000/svg" xmlns:xlink="http://www.w3.org/1999/xlink" x="0px" y="0px"
	 viewBox="0 0 24 24" style="enable-background:new 0 0 24 24;" xml:space="preserve">
<style type="text/css">
	.st0{fill:none;stroke:#FFFFFF;stroke-width:2;stroke-linecap:round;stroke-linejoin:round;}
</style>
<path class="st0" d="M11,3.7H3.6c-1.2,0-2.1,0.9-2.1,2.1v14.6c0,1.2,0.9,2.1,2.1,2.1h14.6c1.2,0,2.1-0.9,2.1-2.1V13"/>
<path class="st0" d="M18.8,2.1c0.9-0.9,2.3-0.9,3.1,0c0.9,0.9,0.9,2.3,0,3.1L12,15.1l-4.2,1l1-4.2L18.8,2.1z"/>
</svg>
