<?xml version="1.0" encoding="utf-8"?>
<!-- Generator: Adobe Illustrator 23.0.5, SVG Export Plug-In . SVG Version: 6.00 Build 0)  -->
<svg version="1.1" id="Layer_1" xmlns="http://www.w3.org/2000/svg" xmlns:xlink="http://www.w3.org/1999/xlink" x="0px" y="0px"
	 viewBox="0 0 734.5 123.1" style="enable-background:new 0 0 734.5 123.1;" xml:space="preserve">
<style type="text/css">
	.st0{fill:#4399EB;}
	.st1{fill:#FFFFFF;}
</style>
<circle id="XMLID_2_" class="st0" cx="61.5" cy="61.5" r="61.5"/>
<g id="XMLID_7_">
	<path id="XMLID_9_" d="M211,12v78.4h-11.9l-43.3-53v53h-14.5V12h11.9l43.2,53V12H211z"/>
	<path id="XMLID_11_" d="M230.3,18.4c-1.8-1.6-2.5-3.6-2.5-6s0.9-4.3,2.5-6c1.6-1.6,3.9-2.4,6.4-2.4c2.5,0,4.6,0.7,6.4,2.2
		c1.6,1.5,2.5,3.4,2.5,5.8s-0.9,4.5-2.5,6.3s-3.9,2.5-6.4,2.5C234,20.8,231.9,19.9,230.3,18.4z M229.5,30.7h14v59.7h-14V30.7z"/>
	<path id="XMLID_14_" d="M276.3,27.5v3.6h16.4v11.2h-16v48.2h-14V42.3h-9.9V31.1h9.9v-3.7c0-6.4,1.8-11.5,5.7-15.2
		c3.7-3.7,9-5.5,15.8-5.5c5.4,0,9.6,1,12.7,3.3L293,20.4c-2.4-1.6-4.9-2.4-7.8-2.4C279.3,17.8,276.3,21.1,276.3,27.5z"/>
	<path id="XMLID_16_" d="M336.9,87.3c-1.6,1.3-3.6,2.4-6,3c-2.4,0.6-4.8,1-7.5,1c-6.6,0-11.6-1.6-15.2-5.1
		c-3.6-3.4-5.4-8.4-5.4-15.1V42.3H293V31.1h9.9V17.5h14v13.6h16v11.2h-16v28.4c0,3,0.7,5.1,2.1,6.7c1.3,1.5,3.4,2.2,6.1,2.2
		c3.1,0,5.7-0.7,7.8-2.4L336.9,87.3z"/>
	<path id="XMLID_18_" d="M402.3,30.7l-28.1,64.7c-2.7,6.6-5.8,11-9.6,13.7c-3.7,2.7-8.2,4-13.6,4c-3,0-6-0.4-8.8-1.5
		c-3-1-5.2-2.4-7.2-4l5.7-10.3c1.3,1.2,3,2.2,4.8,3c1.8,0.7,3.7,1.2,5.5,1.2c2.5,0,4.5-0.6,6.1-1.9c1.6-1.3,3.1-3.4,4.5-6.4l1-2.4
		l-26.3-60h14.6l18.8,44.2l19-44.2C388.9,30.7,402.3,30.7,402.3,30.7z"/>
	<path id="XMLID_20_" d="M419.8,19.2h-27.6V12h63.5v7.2H428v71.2h-8.2V19.2z"/>
	<path id="XMLID_22_" d="M477.4,34.1c3.7-2.1,8.2-3,13.7-3v7.8l-1.9-0.1c-6.3,0-11,1.9-14.6,5.7c-3.6,3.9-5.2,9.1-5.2,16v30h-7.9
		V31.6h7.6v11.5C470.8,39.2,473.7,36.2,477.4,34.1z"/>
	<path id="XMLID_24_" d="M539.5,36.8c4,3.9,6.1,9.6,6.1,17v36.6H538v-9.1c-1.8,3.1-4.5,5.5-7.9,7.2c-3.4,1.8-7.6,2.5-12.4,2.5
		c-6.6,0-11.8-1.5-15.7-4.6c-3.9-3.1-5.8-7.3-5.8-12.4c0-4.9,1.8-9,5.4-12.1c3.6-3,9.4-4.6,17.3-4.6h18.7v-3.6c0-5.1-1.5-9-4.2-11.6
		c-2.8-2.7-7-4-12.4-4c-3.7,0-7.3,0.6-10.8,1.8c-3.4,1.2-6.4,3-8.8,5.1l-3.6-6c3-2.5,6.6-4.5,10.8-5.8c4.2-1.3,8.5-2.1,13.1-2.1
		C529.5,31.1,535.3,33.1,539.5,36.8z M530.6,81.6c3.1-2.1,5.7-5.1,7.2-9v-9.6h-18.5c-10.2,0-15.1,3.6-15.1,10.5
		c0,3.4,1.3,6.1,3.9,8.1c2.7,1.9,6.3,3,10.9,3C523.5,84.7,527.3,83.7,530.6,81.6z"/>
	<path id="XMLID_27_" d="M617.2,7.4v83h-7.6V78.7c-2.4,4-5.5,7-9.4,9.1c-3.9,2.1-8.4,3.1-13.3,3.1c-5.5,0-10.5-1.2-14.9-3.7
		c-4.5-2.5-8.1-6.1-10.5-10.6c-2.5-4.5-3.7-9.7-3.7-15.5s1.2-11,3.7-15.5s6-8.1,10.5-10.6c4.5-2.5,9.4-3.7,14.9-3.7
		c4.8,0,9.1,1,13,3c3.9,1.9,7,4.9,9.4,8.7V7.4H617.2z M598.6,81.1c3.3-1.9,6-4.6,7.9-8.1c1.9-3.4,2.8-7.5,2.8-11.9
		s-0.9-8.5-2.8-11.9c-1.9-3.4-4.5-6.3-7.9-8.1c-3.3-1.9-7-2.8-11.2-2.8s-7.9,0.9-11.2,2.8c-3.3,1.9-6,4.6-7.9,8.1
		c-1.9,3.6-2.8,7.5-2.8,11.9s0.9,8.5,2.8,11.9c1.9,3.6,4.5,6.3,7.9,8.1c3.3,1.9,7,2.8,11.2,2.8S595.2,82.9,598.6,81.1z"/>
	<path id="XMLID_30_" d="M689.4,63.5h-49.3c0.4,6.1,2.8,11,7,14.8c4.2,3.7,9.7,5.7,16.1,5.7c3.6,0,7-0.6,10.2-1.9
		c3-1.3,5.7-3.3,7.9-5.8l4.5,5.1c-2.7,3.1-5.8,5.5-9.9,7.2c-3.9,1.6-8.2,2.4-13,2.4c-6.1,0-11.3-1.3-16.1-3.9
		c-4.6-2.5-8.4-6.1-10.9-10.8c-2.7-4.5-3.9-9.7-3.9-15.5c0-5.7,1.2-10.9,3.7-15.5c2.5-4.5,6-8.1,10.3-10.6c4.3-2.5,9.3-3.7,14.8-3.7
		c5.4,0,10.3,1.3,14.6,3.7c4.3,2.5,7.8,6.1,10.2,10.6c2.5,4.5,3.7,9.7,3.7,15.5L689.4,63.5z M646.7,43.4c-3.9,3.6-6,8.4-6.6,14.2
		H682c-0.6-5.8-2.7-10.6-6.6-14.2s-8.7-5.4-14.3-5.4C655.4,38,650.6,39.8,646.7,43.4z"/>
	<path id="XMLID_33_" d="M717.6,34.1c3.7-2.1,8.2-3,13.7-3v7.8l-1.9-0.1c-6.3,0-11,1.9-14.6,5.7c-3.6,3.9-5.2,9.1-5.2,16v30h-7.9
		V31.6h7.6v11.5C711.2,39.2,713.9,36.2,717.6,34.1z"/>
</g>
<g>
	<path d="M393,102v4.8h7.6v2.5H393v6h-3V99.6h11.5v2.4H393z"/>
	<path d="M403.8,100.8c-0.3-0.3-0.4-0.7-0.4-1.2c0-0.4,0.1-0.9,0.4-1.2c0.3-0.3,0.7-0.4,1.3-0.4s0.9,0.1,1.3,0.4
		c0.3,0.3,0.4,0.7,0.4,1.2c0,0.4-0.1,0.9-0.4,1.2c-0.3,0.3-0.7,0.4-1.3,0.4C404.5,101.4,404.1,101.1,403.8,100.8z M403.6,103.4h2.8
		v11.9h-2.8V103.4z"/>
	<path d="M420.4,104.6c0.9,0.9,1.3,2.2,1.3,3.9v6.9h-2.8v-6.4c0-1-0.3-1.8-0.7-2.4c-0.4-0.6-1.2-0.7-2.1-0.7c-1,0-1.8,0.3-2.4,0.9
		c-0.6,0.6-0.9,1.5-0.9,2.7v6h-2.8v-11.9h2.7v1.5c0.4-0.6,1-1,1.8-1.2c0.7-0.3,1.5-0.4,2.4-0.4C418.1,103.2,419.3,103.7,420.4,104.6
		z"/>
	<path d="M436.8,98.8v16.6h-2.7v-1.5c-0.4,0.6-1,1-1.6,1.3c-0.7,0.3-1.5,0.4-2.2,0.4c-1.2,0-2.2-0.3-3.1-0.7
		c-0.9-0.4-1.6-1.2-2.1-2.1c-0.4-0.9-0.7-1.9-0.7-3.3c0-1.2,0.3-2.2,0.7-3.1c0.6-0.9,1.2-1.6,2.1-2.1s1.9-0.7,3.1-0.7
		c0.7,0,1.5,0.1,2.2,0.4c0.6,0.3,1.2,0.7,1.6,1.2v-6.1h2.7V98.8z M432.3,112.6c0.6-0.3,0.9-0.7,1.3-1.3s0.4-1.2,0.4-1.9
		c0-0.7-0.1-1.3-0.4-1.9c-0.3-0.6-0.7-1-1.3-1.3c-0.6-0.3-1.2-0.4-1.8-0.4s-1.3,0.1-1.8,0.4c-0.4,0.3-0.9,0.7-1.3,1.3
		c-0.4,0.6-0.4,1.2-0.4,1.9c0,0.7,0.1,1.3,0.4,1.9c0.3,0.6,0.7,1,1.3,1.3c0.6,0.3,1.2,0.4,1.8,0.4S431.9,112.9,432.3,112.6z"/>
	<path d="M457.4,103.4l-5.7,13c-0.6,1.3-1.2,2.2-1.9,2.7c-0.7,0.6-1.6,0.7-2.7,0.7c-0.6,0-1.2-0.1-1.8-0.3c-0.6-0.1-1-0.4-1.5-0.7
		l1.2-2.1c0.3,0.3,0.6,0.4,0.9,0.6c0.3,0.1,0.7,0.3,1,0.3c0.4,0,0.9-0.1,1.2-0.4c0.3-0.3,0.6-0.7,0.9-1.3l0.1-0.4l-5.2-11.9h3
		l3.7,8.8l3.7-8.8C454.4,103.4,457.4,103.4,457.4,103.4z"/>
	<path d="M460.7,114.7c-0.9-0.4-1.8-1.2-2.2-2.2c-0.4-1-0.7-1.9-0.7-3.1s0.3-2.2,0.7-3.1c0.4-0.9,1.3-1.6,2.2-2.2
		c1-0.4,2.1-0.7,3.3-0.7c1.2,0,2.4,0.3,3.3,0.7c0.9,0.6,1.8,1.2,2.2,2.2c0.4,1,0.7,1.9,0.7,3.1s-0.3,2.2-0.7,3.1
		c-0.4,0.9-1.3,1.6-2.2,2.2c-1,0.4-2.1,0.7-3.3,0.7C462.8,115.5,461.7,115.2,460.7,114.7z M466.5,112c0.7-0.7,1-1.6,1-2.7
		c0-1-0.3-2.1-1-2.7s-1.5-1-2.5-1s-1.9,0.3-2.5,1c-0.6,0.7-1,1.6-1,2.7c0,1,0.3,2.1,1,2.7c0.6,0.7,1.5,1,2.5,1
		C465,113.1,465.9,112.8,466.5,112z"/>
	<path d="M484.4,103.4v11.9h-2.7v-1.5c-0.4,0.6-1,0.9-1.6,1.2c-0.6,0.3-1.3,0.4-2.2,0.4c-1.6,0-2.8-0.4-3.7-1.3s-1.3-2.2-1.3-3.9
		v-6.9h2.8v6.4c0,1,0.3,1.9,0.7,2.4c0.4,0.6,1.2,0.7,2.1,0.7c1,0,1.8-0.3,2.4-0.9s0.9-1.5,0.9-2.7v-6
		C481.7,103.4,484.4,103.4,484.4,103.4z"/>
	<path d="M494.7,103.2v2.7c-0.3,0-0.4,0-0.6,0c-1,0-1.9,0.3-2.5,0.9c-0.6,0.6-0.9,1.5-0.9,2.7v5.8h-2.8v-11.9h2.7v1.6
		C491.3,103.8,492.8,103.2,494.7,103.2z"/>
	<path d="M497.9,115c-0.9-0.3-1.6-0.6-2.2-0.9l1-2.1c0.6,0.3,1.2,0.6,1.9,0.9c0.7,0.1,1.5,0.3,2.2,0.3c1.6,0,2.5-0.4,2.5-1.3
		c0-0.4-0.1-0.7-0.6-0.9c-0.4-0.1-1-0.3-2.1-0.4c-1-0.1-1.8-0.3-2.4-0.4c-0.6-0.1-1.2-0.6-1.6-1c-0.4-0.4-0.7-1.2-0.7-2.1
		c0-1.2,0.4-2.1,1.5-2.7c0.9-0.7,2.2-1,3.9-1c0.7,0,1.6,0.1,2.5,0.3c0.7,0.1,1.5,0.4,1.9,0.7l-1,2.1c-1-0.6-2.1-0.9-3.4-0.9
		c-0.9,0-1.5,0.1-1.9,0.3c-0.4,0.1-0.6,0.6-0.6,1c0,0.4,0.3,0.7,0.7,0.9c0.4,0.1,1.2,0.3,2.1,0.6c0.9,0.1,1.8,0.3,2.4,0.4
		c0.6,0.1,1.2,0.4,1.6,1c0.4,0.4,0.6,1.2,0.6,1.9c0,1.2-0.4,2.1-1.5,2.7c-1,0.7-2.2,1-4,1C499.6,115.5,498.8,115.3,497.9,115z"/>
	<path d="M519.5,110.3h-9.4c0.1,0.9,0.6,1.6,1.3,2.1c0.7,0.4,1.5,0.7,2.5,0.7c1.3,0,2.4-0.4,3.3-1.3l1.5,1.8
		c-0.6,0.6-1.2,1.2-2.1,1.5s-1.8,0.4-2.8,0.4c-1.3,0-2.5-0.3-3.4-0.7c-0.9-0.4-1.8-1.2-2.4-2.2c-0.6-1-0.7-1.9-0.7-3.1
		c0-1.2,0.3-2.2,0.7-3.1c0.6-0.9,1.2-1.6,2.2-2.2c0.9-0.4,1.9-0.7,3.1-0.7c1.2,0,2.2,0.3,3.1,0.7c0.9,0.4,1.6,1.2,2.1,2.2
		c0.4,0.9,0.7,1.9,0.7,3.3C519.5,109.7,519.5,109.8,519.5,110.3z M511.1,106.2c-0.6,0.6-1,1.2-1.2,2.1h6.7c-0.1-0.9-0.4-1.5-1-2.1
		c-0.6-0.6-1.3-0.7-2.2-0.7C512.6,105.5,511.9,105.8,511.1,106.2z"/>
	<path d="M522,98.8h2.8v16.6H522V98.8z"/>
	<path d="M531.3,102.8v0.7h3.3v2.2h-3.1v9.7h-2.8v-9.7h-1.9v-2.2h1.9v-0.7c0-1.3,0.3-2.2,1.2-3c0.7-0.7,1.8-1,3.1-1
		c1,0,1.9,0.1,2.5,0.6l-0.7,2.1c-0.4-0.3-1-0.4-1.5-0.4C531.9,100.8,531.3,101.4,531.3,102.8z"/>
	<path d="M554.3,115.5l-1.9-1.9c-1.5,1.2-3.3,1.9-5.2,1.9c-1,0-2.1-0.1-3-0.6c-0.9-0.4-1.5-0.9-2.1-1.5c-0.4-0.6-0.7-1.3-0.7-2.1
		c0-0.9,0.3-1.8,0.9-2.5c0.6-0.7,1.5-1.5,2.8-2.2c-0.6-0.6-1-1.2-1.3-1.8c-0.3-0.6-0.4-1-0.4-1.6c0-1,0.4-1.9,1.2-2.7
		c0.9-0.7,1.9-1,3.3-1c1.2,0,2.2,0.3,3,0.9c0.7,0.6,1.2,1.5,1.2,2.5c0,0.7-0.3,1.5-0.7,2.1c-0.4,0.6-1.3,1.2-2.4,1.9l3.4,3.3
		c0.4-0.7,0.6-1.6,0.9-2.7l2.2,0.7c-0.3,1.3-0.7,2.5-1.3,3.6l1.9,1.9L554.3,115.5z M550.7,112l-4.2-4c-0.9,0.4-1.5,0.9-1.9,1.5
		c-0.3,0.4-0.6,0.9-0.6,1.5s0.3,1.2,0.9,1.6c0.6,0.4,1.3,0.6,2.2,0.6C548.5,113.2,549.7,112.8,550.7,112z M546.2,101.9
		c-0.3,0.3-0.6,0.7-0.6,1.2c0,0.3,0.1,0.7,0.3,1c0.1,0.3,0.6,0.7,1.2,1.3c0.9-0.4,1.5-0.9,1.9-1.3c0.3-0.3,0.6-0.7,0.6-1.2
		c0-0.4-0.1-0.9-0.4-1c-0.3-0.3-0.7-0.4-1.3-0.4C547.1,101.4,546.7,101.6,546.2,101.9z"/>
	<path d="M567.3,102h-5.2v-2.5h13.3v2.5h-5.2v13.1h-3V102H567.3z"/>
	<path d="M583.7,103.2v2.7c-0.3,0-0.4,0-0.6,0c-1,0-1.9,0.3-2.5,0.9c-0.6,0.6-0.9,1.5-0.9,2.7v5.8h-2.8v-11.9h2.7v1.6
		C580.3,103.8,581.6,103.2,583.7,103.2z"/>
	<path d="M594.3,104.4c0.9,0.9,1.3,2.1,1.3,3.9v7H593v-1.5c-0.3,0.4-0.9,0.9-1.5,1.2c-0.6,0.3-1.3,0.4-2.2,0.4s-1.6-0.1-2.4-0.4
		c-0.7-0.3-1.2-0.7-1.5-1.3s-0.6-1.2-0.6-1.8c0-1,0.4-1.9,1.2-2.5c0.7-0.6,2.1-1,3.7-1h3.1v-0.1c0-0.9-0.3-1.5-0.7-1.9
		c-0.4-0.4-1.2-0.7-2.2-0.7c-0.7,0-1.3,0.1-1.9,0.3s-1.2,0.4-1.6,0.9l-1-2.1c0.6-0.4,1.3-0.9,2.2-1c0.9-0.1,1.8-0.4,2.8-0.4
		C592.1,103.2,593.4,103.7,594.3,104.4z M591.8,112.9c0.6-0.3,0.9-0.7,1.2-1.3v-1.3h-2.8c-1.6,0-2.4,0.6-2.4,1.6
		c0,0.4,0.1,0.9,0.6,1.2c0.4,0.3,0.9,0.4,1.6,0.4C590.7,113.4,591.3,113.2,591.8,112.9z"/>
	<path d="M610.9,98.8v16.6h-2.7v-1.5c-0.4,0.6-1,1-1.6,1.3c-0.7,0.3-1.5,0.4-2.2,0.4c-1.2,0-2.2-0.3-3.1-0.7
		c-0.9-0.4-1.6-1.2-2.1-2.1c-0.4-0.9-0.7-1.9-0.7-3.3c0-1.2,0.3-2.2,0.7-3.1c0.6-0.9,1.2-1.6,2.1-2.1s1.9-0.7,3.1-0.7
		c0.7,0,1.5,0.1,2.2,0.4c0.6,0.3,1.2,0.7,1.6,1.2v-6.1h2.7V98.8z M606.4,112.6c0.6-0.3,0.9-0.7,1.3-1.3c0.4-0.6,0.4-1.2,0.4-1.9
		c0-0.7-0.1-1.3-0.4-1.9c-0.3-0.6-0.7-1-1.3-1.3c-0.6-0.3-1.2-0.4-1.8-0.4s-1.3,0.1-1.8,0.4c-0.4,0.3-0.9,0.7-1.3,1.3
		c-0.4,0.6-0.4,1.2-0.4,1.9c0,0.7,0.1,1.3,0.4,1.9s0.7,1,1.3,1.3s1.2,0.4,1.8,0.4S606,112.9,606.4,112.6z"/>
	<path d="M625.7,110.3h-9.4c0.1,0.9,0.6,1.6,1.3,2.1c0.7,0.4,1.5,0.7,2.5,0.7c1.3,0,2.4-0.4,3.3-1.3l1.5,1.8
		c-0.6,0.6-1.2,1.2-2.1,1.5c-0.9,0.3-1.8,0.4-2.8,0.4c-1.3,0-2.5-0.3-3.4-0.7c-0.9-0.4-1.8-1.2-2.4-2.2c-0.6-1-0.7-1.9-0.7-3.1
		c0-1.2,0.3-2.2,0.7-3.1c0.6-0.9,1.2-1.6,2.2-2.2c0.9-0.4,1.9-0.7,3.1-0.7c1.2,0,2.2,0.3,3.1,0.7c0.9,0.4,1.6,1.2,2.1,2.2
		c0.4,0.9,0.7,1.9,0.7,3.3C625.7,109.7,625.7,109.8,625.7,110.3z M617.3,106.2c-0.6,0.6-1,1.2-1.2,2.1h6.7c-0.1-0.9-0.4-1.5-1-2.1
		c-0.6-0.6-1.3-0.7-2.2-0.7S617.9,105.8,617.3,106.2z"/>
	<path d="M641.2,114.6c-0.3,0.3-0.7,0.4-1.2,0.6s-0.9,0.1-1.5,0.1c-1.3,0-2.4-0.3-3-1c-0.7-0.7-1-1.6-1-3v-5.8h-1.9v-2.2h1.9v-2.7
		h2.8v2.7h3.1v2.2h-3.1v5.7c0,0.6,0.1,1,0.4,1.3c0.3,0.3,0.7,0.4,1.2,0.4c0.6,0,1.2-0.1,1.5-0.4L641.2,114.6z"/>
	<path d="M653.7,104.6c0.9,0.9,1.3,2.2,1.3,3.9v6.9h-2.8v-6.4c0-1-0.3-1.8-0.7-2.4s-1.2-0.7-2.1-0.7c-1,0-1.8,0.3-2.4,0.9
		s-0.9,1.5-0.9,2.7v6h-2.8V98.8h2.8v6c0.4-0.4,1-0.9,1.6-1.2c0.7-0.3,1.5-0.4,2.2-0.4C651.6,103.2,652.8,103.7,653.7,104.6z"/>
	<path d="M667,104.4c0.9,0.9,1.3,2.1,1.3,3.9v7h-2.7v-1.5c-0.3,0.4-0.9,0.9-1.5,1.2c-0.6,0.3-1.3,0.4-2.2,0.4s-1.6-0.1-2.4-0.4
		c-0.7-0.3-1.2-0.7-1.5-1.3s-0.6-1.2-0.6-1.8c0-1,0.4-1.9,1.2-2.5c0.7-0.6,2.1-1,3.7-1h3.1v-0.1c0-0.9-0.3-1.5-0.7-1.9
		c-0.4-0.4-1.2-0.7-2.2-0.7c-0.7,0-1.3,0.1-1.9,0.3s-1.2,0.4-1.6,0.9l-1-2.1c0.6-0.4,1.3-0.9,2.2-1c0.9-0.1,1.8-0.4,2.8-0.4
		C664.8,103.2,666.1,103.7,667,104.4z M664.5,112.9c0.6-0.3,0.9-0.7,1.2-1.3v-1.3h-2.8c-1.6,0-2.4,0.6-2.4,1.6
		c0,0.4,0.1,0.9,0.6,1.2c0.4,0.3,0.9,0.4,1.6,0.4C663.3,113.4,664,113.2,664.5,112.9z"/>
	<path d="M679,114.6c-0.3,0.3-0.7,0.4-1.2,0.6c-0.4,0.1-0.9,0.1-1.5,0.1c-1.3,0-2.4-0.3-3-1c-0.7-0.7-1-1.6-1-3v-5.8h-1.9v-2.2h1.9
		v-2.7h2.8v2.7h3.1v2.2h-3.1v5.7c0,0.6,0.1,1,0.4,1.3c0.3,0.3,0.7,0.4,1.2,0.4c0.6,0,1.2-0.1,1.5-0.4L679,114.6z"/>
	<path d="M705.7,103.4l-4.5,11.9h-2.7l-3.1-8.2l-3.1,8.2h-2.7l-4.3-11.9h2.7l3.1,8.8l3.3-8.8h2.4l3.3,8.8l3.3-8.8H705.7z"/>
	<path d="M715.7,104.4c0.9,0.9,1.3,2.1,1.3,3.9v7h-2.7v-1.5c-0.3,0.4-0.9,0.9-1.5,1.2c-0.6,0.3-1.3,0.4-2.2,0.4
		c-0.9,0-1.6-0.1-2.4-0.4c-0.7-0.3-1.2-0.7-1.5-1.3s-0.6-1.2-0.6-1.8c0-1,0.4-1.9,1.2-2.5c0.7-0.6,2.1-1,3.7-1h3.1v-0.1
		c0-0.9-0.3-1.5-0.7-1.9c-0.4-0.4-1.2-0.7-2.2-0.7c-0.7,0-1.3,0.1-1.9,0.3c-0.6,0.1-1.2,0.4-1.6,0.9l-1-2.1c0.6-0.4,1.3-0.9,2.2-1
		c0.9-0.1,1.8-0.4,2.8-0.4C713.3,103.2,714.7,103.7,715.7,104.4z M713.2,112.9c0.6-0.3,0.9-0.7,1.2-1.3v-1.3h-2.8
		c-1.6,0-2.4,0.6-2.4,1.6c0,0.4,0.1,0.9,0.6,1.2c0.4,0.3,0.9,0.4,1.6,0.4C712,113.4,712.6,113.2,713.2,112.9z"/>
	<path d="M731.4,103.4l-5.7,13c-0.6,1.3-1.2,2.2-1.9,2.7c-0.7,0.6-1.6,0.7-2.7,0.7c-0.6,0-1.2-0.1-1.8-0.3c-0.6-0.1-1-0.4-1.5-0.7
		l1.2-2.1c0.3,0.3,0.6,0.4,0.9,0.6c0.3,0.1,0.7,0.3,1,0.3c0.4,0,0.9-0.1,1.2-0.4c0.3-0.3,0.6-0.7,0.9-1.3l0.1-0.4l-5.2-11.9h3
		l3.7,8.8l3.7-8.8C728.4,103.4,731.4,103.4,731.4,103.4z"/>
</g>
<g id="XMLID_6_">
	<ellipse class="st0" cx="61.5" cy="61.6" rx="51" ry="51"/>
	<path class="st1" d="M61.5,14C87.7,14,109,35.3,109,61.5S87.7,109,61.5,109S14,87.8,14,61.5S35.3,14,61.5,14 M61.5,7
		C31.4,7,7,31.4,7,61.5S31.4,116,61.5,116S116,91.6,116,61.5C116.1,31.4,91.7,7,61.5,7L61.5,7z"/>
</g>
<polygon id="XMLID_37_" class="st1" points="78.6,21.8 67.3,36.5 73.1,36.5 73.1,67.6 50.1,36 39.1,36 39.1,86.1 33.3,86.1 
	44.6,100.9 55.9,86.1 50.1,86.1 50.1,54.4 73.1,86.7 84.1,86.7 84.1,36.5 89.9,36.5 "/>
</svg>
