<?xml version="1.0" encoding="utf-8"?>
<!-- Generator: Adobe Illustrator 23.0.5, SVG Export Plug-In . SVG Version: 6.00 Build 0)  -->
<svg version="1.1" id="Layer_1" xmlns="http://www.w3.org/2000/svg" xmlns:xlink="http://www.w3.org/1999/xlink" x="0px" y="0px"
	 viewBox="0 0 123 123" style="enable-background:new 0 0 123 123;" xml:space="preserve">
<style type="text/css">
	.st0{fill:#4399EB;}
	.st1{fill:#FFFFFF;}
</style>
<circle id="XMLID_2_" class="st0" cx="61.5" cy="61.5" r="61.5"/>
<g id="XMLID_6_">
	<ellipse class="st0" cx="61.5" cy="61.6" rx="51" ry="51"/>
	<path class="st1" d="M61.5,14C87.7,14,109,35.3,109,61.5S87.7,109,61.5,109S14,87.8,14,61.5S35.3,14,61.5,14 M61.5,7
		C31.4,7,7,31.4,7,61.5S31.4,116,61.5,116S116,91.6,116,61.5C116.1,31.4,91.7,7,61.5,7L61.5,7z"/>
</g>
<polygon id="XMLID_37_" class="st1" points="78.6,21.8 67.3,36.5 73.1,36.5 73.1,67.6 50.1,36 39.1,36 39.1,86.1 33.3,86.1 
	44.6,100.9 55.9,86.1 50.1,86.1 50.1,54.4 73.1,86.7 84.1,86.7 84.1,36.5 89.9,36.5 "/>
</svg>
