<?xml version="1.0" encoding="utf-8"?>
<!-- Generator: Adobe Illustrator 23.0.5, SVG Export Plug-In . SVG Version: 6.00 Build 0)  -->
<svg version="1.1" id="Layer_1" xmlns="http://www.w3.org/2000/svg" xmlns:xlink="http://www.w3.org/1999/xlink" x="0px" y="0px"
	 viewBox="0 0 24 24" style="enable-background:new 0 0 24 24;" xml:space="preserve">
<style type="text/css">
	.st0{fill:#2196F3;}
</style>
<g>
	<path class="st0" d="M19.5,12.7l2.8-2c0.5-0.4,0.8-1.1,0.6-1.7s-0.8-1.1-1.4-1.1h-6.2L13.4,2C13.2,1.4,12.7,1,12,1
		c-0.7,0-1.2,0.4-1.4,1.1L8.7,7.9H2.5c-0.7,0-1.2,0.4-1.4,1.1c-0.2,0.6,0,1.3,0.6,1.7l5,3.6L4.7,20c-0.2,0.6,0,1.3,0.6,1.7
		C5.5,21.9,5.8,22,6.1,22c0.3,0,0.6-0.1,0.9-0.3l5-3.6l0.4,0.3C12.8,21,15,23,17.7,23c2.9,0,5.3-2.4,5.3-5.3
		C23,15.4,21.6,13.4,19.5,12.7z M17.7,21.9c-2.4,0-4.3-1.9-4.3-4.3c0-2.4,1.9-4.3,4.3-4.3c2.4,0,4.3,1.9,4.3,4.3
		C22,20,20,21.9,17.7,21.9z M12.3,17.1C12.2,17,12.1,17,12,17c-0.1,0-0.2,0-0.3,0.1l-5.3,3.8C6.3,21,6.3,21,6.2,21
		c-0.1,0-0.2,0-0.3-0.1c-0.1-0.1-0.3-0.3-0.2-0.5l2-6.2c0.1-0.2,0-0.4-0.2-0.6L2.2,9.8C2,9.6,2,9.4,2.1,9.2c0.1-0.2,0.2-0.3,0.5-0.3
		H9c0.2,0,0.4-0.1,0.5-0.4l2-6.2C11.6,2.1,11.8,2,12,2c0.2,0,0.4,0.1,0.5,0.3l2,6.2c0.1,0.2,0.3,0.4,0.5,0.4h6.5
		c0.3,0,0.4,0.2,0.5,0.3c0.1,0.2,0,0.4-0.2,0.5l-3.6,2.6c-0.2,0-0.4,0-0.5,0C14.9,12.3,12.6,14.4,12.3,17.1L12.3,17.1z"/>
	<path class="st0" d="M19.6,16.9h-1.3v-1.3c0-0.4-0.3-0.7-0.7-0.7c-0.4,0-0.7,0.3-0.7,0.7v1.3h-1.3c-0.4,0-0.7,0.3-0.7,0.7
		c0,0.4,0.3,0.7,0.7,0.7h1.3v1.3c0,0.4,0.3,0.7,0.7,0.7s0.7-0.3,0.7-0.7v-1.3h1.3c0.4,0,0.7-0.3,0.7-0.7
		C20.3,17.2,20,16.9,19.6,16.9z"/>
</g>
</svg>
