google.com, pub-8834194653550774, DIRECT, f08c47fec0942fa0
google.com, pub-8834194653550774, RESELLER, f08c47fec0942fa0
google.com, pub-3737030722290655, DIRECT, f08c47fec0942fa0
google.com, pub-3737030722290655, RESELLER, f08c47fec0942fa0
google.com, pub-6108764085174824, DIRECT, f08c47fec0942fa0
google.com, pub-6108764085174824, RESELLER, f08c47fec0942fa0
google.com, pub-5413329544040947, DIRECT, f08c47fec0942fa0
google.com, pub-5413329544040947, RESELLER, f08c47fec0942fa0